[
  [
    "Likiesha",
    "si110",
    1
  ],
  [
    "Shannon",
    "si110",
    0
  ],
  [
    "Ace",
    "si110",
    0
  ],
  [
    "Cayden",
    "si110",
    0
  ],
  [
    "Maddi",
    "si110",
    0
  ],
  [
    "Rana",
    "si110",
    0
  ],
  [
    "Paolo",
    "si110",
    0
  ],
  [
    "Fawaz",
    "si110",
    0
  ],
  [
    "Marcello",
    "si110",
    0
  ],
  [
    "Damon",
    "si110",
    0
  ],
  [
    "Haydn",
    "si110",
    0
  ],
  [
    "Oshun",
    "si110",
    0
  ],
  [
    "Kaelin",
    "si110",
    0
  ],
  [
    "Caelen",
    "si110",
    0
  ],
  [
    "Adam",
    "si110",
    0
  ],
  [
    "Diane",
    "si110",
    0
  ],
  [
    "Jed",
    "si110",
    0
  ],
  [
    "Virginie",
    "si110",
    0
  ],
  [
    "Juwairiyah",
    "si110",
    0
  ],
  [
    "Tia",
    "si110",
    0
  ],
  [
    "Jacques",
    "si110",
    0
  ],
  [
    "Antonyo",
    "si110",
    0
  ],
  [
    "Xavier",
    "si110",
    0
  ],
  [
    "Dilan",
    "si110",
    0
  ],
  [
    "Christabel",
    "si110",
    0
  ],
  [
    "Shania",
    "si110",
    0
  ],
  [
    "Gaia",
    "si110",
    0
  ],
  [
    "Promise",
    "si110",
    0
  ],
  [
    "Eljon",
    "si110",
    0
  ],
  [
    "Andrei",
    "si110",
    0
  ],
  [
    "Nicol",
    "si110",
    0
  ],
  [
    "Zaynab",
    "si110",
    0
  ],
  [
    "Daithi",
    "si110",
    0
  ],
  [
    "Jedidiah",
    "si110",
    0
  ],
  [
    "Kurtis",
    "si110",
    0
  ],
  [
    "Rasmus",
    "si110",
    0
  ],
  [
    "Phillipa",
    "si110",
    0
  ],
  [
    "Sharland",
    "si110",
    0
  ],
  [
    "Kaidan",
    "si110",
    0
  ],
  [
    "Kaison",
    "si110",
    0
  ],
  [
    "Keanna",
    "si110",
    0
  ],
  [
    "Nickson",
    "si110",
    0
  ],
  [
    "Maanav",
    "si110",
    0
  ],
  [
    "Lauchlan",
    "si110",
    0
  ],
  [
    "Konnie",
    "si110",
    0
  ],
  [
    "Isabell",
    "si110",
    0
  ],
  [
    "Fauve",
    "si110",
    0
  ],
  [
    "Faryn",
    "si110",
    0
  ],
  [
    "Ayra",
    "si110",
    0
  ],
  [
    "Connar",
    "si110",
    0
  ],
  [
    "Melanie",
    "si106",
    1
  ],
  [
    "Bader",
    "si106",
    0
  ],
  [
    "Rayna",
    "si106",
    0
  ],
  [
    "McKauley",
    "si106",
    0
  ],
  [
    "Codey",
    "si106",
    0
  ],
  [
    "Xaniamh",
    "si106",
    0
  ],
  [
    "Petra",
    "si106",
    0
  ],
  [
    "Fraya",
    "si106",
    0
  ],
  [
    "Lilliana",
    "si106",
    0
  ],
  [
    "Wen",
    "si106",
    0
  ],
  [
    "Zach",
    "si106",
    0
  ],
  [
    "Arnold",
    "si106",
    0
  ],
  [
    "Calin",
    "si106",
    0
  ],
  [
    "Tansy",
    "si106",
    0
  ],
  [
    "Naz",
    "si106",
    0
  ],
  [
    "Torrin",
    "si106",
    0
  ],
  [
    "Charlee",
    "si106",
    0
  ],
  [
    "Jia",
    "si106",
    0
  ],
  [
    "Mikaela",
    "si106",
    0
  ],
  [
    "Honey",
    "si106",
    0
  ],
  [
    "Davie",
    "si106",
    0
  ],
  [
    "Dominika",
    "si106",
    0
  ],
  [
    "Oluwatimilehin",
    "si106",
    0
  ],
  [
    "Wasif",
    "si106",
    0
  ],
  [
    "Marwah",
    "si106",
    0
  ],
  [
    "Leya",
    "si106",
    0
  ],
  [
    "Jaying",
    "si106",
    0
  ],
  [
    "Oban",
    "si106",
    0
  ],
  [
    "Zayne",
    "si106",
    0
  ],
  [
    "Jamaal",
    "si106",
    0
  ],
  [
    "Otilija",
    "si106",
    0
  ],
  [
    "Juliette",
    "si206",
    1
  ],
  [
    "Tailee",
    "si206",
    0
  ],
  [
    "Prisha",
    "si206",
    0
  ],
  [
    "Kedrick",
    "si206",
    0
  ],
  [
    "Cassy",
    "si206",
    0
  ],
  [
    "Elyana",
    "si206",
    0
  ],
  [
    "Sum",
    "si206",
    0
  ],
  [
    "Jace",
    "si206",
    0
  ],
  [
    "Ajay",
    "si206",
    0
  ],
  [
    "Keilan",
    "si206",
    0
  ],
  [
    "Tanika",
    "si206",
    0
  ],
  [
    "Matas",
    "si206",
    0
  ],
  [
    "Amez",
    "si206",
    0
  ],
  [
    "Lyall",
    "si206",
    0
  ],
  [
    "Breeanna",
    "si206",
    0
  ],
  [
    "Franciszek",
    "si206",
    0
  ],
  [
    "Maisy",
    "si206",
    0
  ],
  [
    "Cariss",
    "si206",
    0
  ],
  [
    "Lauryn",
    "si206",
    0
  ],
  [
    "Nairn",
    "si301",
    1
  ],
  [
    "Elona",
    "si301",
    0
  ],
  [
    "Ronan",
    "si301",
    0
  ],
  [
    "Lisa",
    "si301",
    0
  ],
  [
    "Ekhlass",
    "si301",
    0
  ],
  [
    "Kate",
    "si301",
    0
  ],
  [
    "Naif",
    "si301",
    0
  ],
  [
    "Leila",
    "si301",
    0
  ],
  [
    "Lancelot",
    "si301",
    0
  ],
  [
    "Kinnon",
    "si301",
    0
  ],
  [
    "Xavier",
    "si301",
    0
  ],
  [
    "Anmol",
    "si301",
    0
  ],
  [
    "Derin",
    "si301",
    0
  ],
  [
    "Claire",
    "si301",
    0
  ],
  [
    "Tigan",
    "si301",
    0
  ],
  [
    "Caceylee",
    "si301",
    0
  ],
  [
    "Ellah",
    "si301",
    0
  ],
  [
    "Montague",
    "si301",
    0
  ],
  [
    "Kirstin",
    "si301",
    0
  ],
  [
    "Casey",
    "si301",
    0
  ],
  [
    "Aiyanna",
    "si301",
    0
  ],
  [
    "Gerard",
    "si301",
    0
  ],
  [
    "Jayson",
    "si301",
    0
  ],
  [
    "Bushra",
    "si301",
    0
  ],
  [
    "Asal",
    "si301",
    0
  ],
  [
    "Danica",
    "si301",
    0
  ],
  [
    "Sia",
    "si301",
    0
  ],
  [
    "Benjamyn",
    "si301",
    0
  ],
  [
    "Emmie",
    "si301",
    0
  ],
  [
    "Iman",
    "si301",
    0
  ],
  [
    "Jeevan",
    "si301",
    0
  ],
  [
    "Caysey",
    "si301",
    0
  ],
  [
    "Roy",
    "si301",
    0
  ],
  [
    "Cadance",
    "si301",
    0
  ],
  [
    "Alveena",
    "si301",
    0
  ],
  [
    "Vikki",
    "si301",
    0
  ],
  [
    "Innes",
    "si301",
    0
  ],
  [
    "Aarthi",
    "si310",
    1
  ],
  [
    "Kashif",
    "si310",
    0
  ],
  [
    "Darren",
    "si310",
    0
  ],
  [
    "Jaymie",
    "si310",
    0
  ],
  [
    "Brendon",
    "si310",
    0
  ],
  [
    "Devon",
    "si310",
    0
  ],
  [
    "Fox",
    "si310",
    0
  ],
  [
    "Abdisalam",
    "si310",
    0
  ],
  [
    "Caelen",
    "si310",
    0
  ],
  [
    "Hassan",
    "si310",
    0
  ],
  [
    "Jonothan",
    "si310",
    0
  ],
  [
    "Girls",
    "si310",
    0
  ],
  [
    "Darragh",
    "si310",
    0
  ],
  [
    "Telise",
    "si310",
    0
  ],
  [
    "Andrea",
    "si310",
    0
  ],
  [
    "Brayden",
    "si310",
    0
  ],
  [
    "Judith",
    "si310",
    0
  ],
  [
    "Pearl",
    "si334",
    1
  ],
  [
    "Vuyolwethu",
    "si334",
    0
  ],
  [
    "Amyrose",
    "si334",
    0
  ],
  [
    "Calder",
    "si334",
    0
  ],
  [
    "Colum",
    "si334",
    0
  ],
  [
    "Jordin",
    "si334",
    0
  ],
  [
    "Maeghan",
    "si334",
    0
  ],
  [
    "Luighsighe",
    "si334",
    0
  ],
  [
    "Poppie",
    "si334",
    0
  ],
  [
    "Luqman",
    "si334",
    0
  ],
  [
    "Miriam",
    "si334",
    0
  ],
  [
    "Jaymi",
    "si334",
    0
  ],
  [
    "Ebow",
    "si334",
    0
  ],
  [
    "Ray",
    "si334",
    0
  ],
  [
    "Peaches",
    "si334",
    0
  ],
  [
    "Avani",
    "si334",
    0
  ],
  [
    "Lenyn",
    "si334",
    0
  ],
  [
    "Denny",
    "si334",
    0
  ],
  [
    "Nathaniel",
    "si334",
    0
  ],
  [
    "Lana",
    "si334",
    0
  ],
  [
    "Rihannah",
    "si334",
    0
  ],
  [
    "Ayaana",
    "si334",
    0
  ],
  [
    "Chintu",
    "si334",
    0
  ],
  [
    "Aleksandra",
    "si334",
    0
  ],
  [
    "Claire",
    "si334",
    0
  ],
  [
    "Rayane",
    "si334",
    0
  ],
  [
    "Emil",
    "si334",
    0
  ],
  [
    "Helia",
    "si334",
    0
  ],
  [
    "Marshall",
    "si334",
    0
  ],
  [
    "Robbi",
    "si334",
    0
  ],
  [
    "Amaylyuh",
    "si334",
    0
  ],
  [
    "Geordie",
    "si334",
    0
  ],
  [
    "Vincenzo",
    "si334",
    0
  ],
  [
    "Obosa",
    "si334",
    0
  ],
  [
    "Deon",
    "si334",
    0
  ],
  [
    "Bryce",
    "si334",
    0
  ],
  [
    "Zechariah",
    "si363",
    1
  ],
  [
    "Hanim",
    "si363",
    0
  ],
  [
    "Rosina",
    "si363",
    0
  ],
  [
    "Keivlin",
    "si363",
    0
  ],
  [
    "Raithin",
    "si363",
    0
  ],
  [
    "Ayomide",
    "si363",
    0
  ],
  [
    "Efe",
    "si363",
    0
  ],
  [
    "Mirin",
    "si363",
    0
  ],
  [
    "Angelina",
    "si363",
    0
  ],
  [
    "Taira",
    "si363",
    0
  ],
  [
    "Elyse",
    "si363",
    0
  ],
  [
    "Demetrius",
    "si363",
    0
  ],
  [
    "Lusiana",
    "si363",
    0
  ],
  [
    "Vladimir",
    "si363",
    0
  ],
  [
    "Vinh",
    "si363",
    0
  ],
  [
    "Alx",
    "si363",
    0
  ],
  [
    "Nell",
    "si363",
    0
  ],
  [
    "Eonan",
    "si363",
    0
  ],
  [
    "Fay",
    "si363",
    0
  ],
  [
    "Suman",
    "si363",
    0
  ],
  [
    "Zishan",
    "si363",
    0
  ],
  [
    "Coya",
    "si363",
    0
  ],
  [
    "Bismah",
    "si363",
    0
  ],
  [
    "Haylie",
    "si363",
    0
  ],
  [
    "Caidyn",
    "si363",
    0
  ],
  [
    "Bernadette",
    "si363",
    0
  ],
  [
    "Kian",
    "si363",
    0
  ],
  [
    "Abbe",
    "si363",
    0
  ],
  [
    "Rhya",
    "si363",
    0
  ],
  [
    "Holly",
    "si363",
    0
  ],
  [
    "Sareena",
    "si363",
    0
  ],
  [
    "Chimsom",
    "si363",
    0
  ],
  [
    "Anubhav",
    "si363",
    0
  ],
  [
    "Courtny",
    "si363",
    0
  ],
  [
    "Daanyaal",
    "si363",
    0
  ],
  [
    "A",
    "si363",
    0
  ],
  [
    "Yelena",
    "si363",
    0
  ],
  [
    "Benny",
    "si363",
    0
  ],
  [
    "Latifa",
    "si363",
    0
  ],
  [
    "Aleisha",
    "si363",
    0
  ],
  [
    "Tye",
    "si363",
    0
  ],
  [
    "Kendyn",
    "si363",
    0
  ],
  [
    "Abrare",
    "si363",
    0
  ],
  [
    "Tehzeeba",
    "si363",
    0
  ],
  [
    "Leila",
    "si363",
    0
  ],
  [
    "Jemima",
    "si363",
    0
  ],
  [
    "Malachi",
    "si363",
    0
  ],
  [
    "Jenah",
    "si363",
    0
  ],
  [
    "Abbas",
    "si363",
    0
  ],
  [
    "Luisa",
    "si363",
    0
  ],
  [
    "Badr",
    "si363",
    0
  ],
  [
    "Kaycee",
    "si364",
    1
  ],
  [
    "Tisloh",
    "si364",
    0
  ],
  [
    "Karly",
    "si364",
    0
  ],
  [
    "Loui",
    "si364",
    0
  ],
  [
    "Karmen",
    "si364",
    0
  ],
  [
    "Kaydi",
    "si364",
    0
  ],
  [
    "Caileen",
    "si364",
    0
  ],
  [
    "Jamal",
    "si364",
    0
  ],
  [
    "Liva",
    "si364",
    0
  ],
  [
    "Irza",
    "si364",
    0
  ],
  [
    "Nazzera",
    "si364",
    0
  ],
  [
    "Kael",
    "si364",
    0
  ],
  [
    "Zenah",
    "si364",
    0
  ],
  [
    "Choire",
    "si364",
    0
  ],
  [
    "Mayra",
    "si364",
    0
  ],
  [
    "Carlynn",
    "si364",
    0
  ],
  [
    "Loche",
    "si364",
    0
  ],
  [
    "Zaina",
    "si364",
    0
  ],
  [
    "Charly",
    "si364",
    0
  ],
  [
    "Anastacia",
    "si364",
    0
  ],
  [
    "Hui",
    "si364",
    0
  ],
  [
    "Weronika",
    "si364",
    0
  ],
  [
    "Jeyun",
    "si364",
    0
  ],
  [
    "Sabila",
    "si364",
    0
  ],
  [
    "Leyland",
    "si364",
    0
  ],
  [
    "Natasha",
    "si364",
    0
  ],
  [
    "Safeena",
    "si364",
    0
  ],
  [
    "Malachai",
    "si364",
    0
  ],
  [
    "Aryian",
    "si364",
    0
  ],
  [
    "Tyler",
    "si364",
    0
  ],
  [
    "Kyla",
    "si364",
    0
  ],
  [
    "Eve",
    "si364",
    0
  ],
  [
    "Leigh",
    "si364",
    0
  ],
  [
    "Chizaram",
    "si422",
    1
  ],
  [
    "Jian",
    "si422",
    0
  ],
  [
    "Stuart",
    "si422",
    0
  ],
  [
    "Clodagh",
    "si422",
    0
  ],
  [
    "Aurelija",
    "si422",
    0
  ],
  [
    "Seona",
    "si422",
    0
  ],
  [
    "Francisca",
    "si422",
    0
  ],
  [
    "Tala",
    "si422",
    0
  ],
  [
    "Blue",
    "si422",
    0
  ],
  [
    "Amara",
    "si422",
    0
  ],
  [
    "Daksh",
    "si422",
    0
  ],
  [
    "Awais",
    "si422",
    0
  ],
  [
    "Anmolpreet",
    "si422",
    0
  ],
  [
    "Humayra",
    "si422",
    0
  ],
  [
    "Shihed",
    "si422",
    0
  ],
  [
    "Elizaveta",
    "si422",
    0
  ],
  [
    "Annastacia",
    "si422",
    0
  ],
  [
    "Louanne",
    "si422",
    0
  ],
  [
    "Buse",
    "si422",
    0
  ],
  [
    "Taliesin",
    "si422",
    0
  ],
  [
    "Vinh",
    "si422",
    0
  ],
  [
    "Ayooluwa",
    "si422",
    0
  ],
  [
    "Boni",
    "si422",
    0
  ],
  [
    "Paidamoyo",
    "si422",
    0
  ],
  [
    "Kaysha",
    "si422",
    0
  ],
  [
    "Boys",
    "si422",
    0
  ],
  [
    "Indie",
    "si422",
    0
  ],
  [
    "Douglas",
    "si422",
    0
  ],
  [
    "Parisa",
    "si422",
    0
  ],
  [
    "Eibhlin",
    "si422",
    0
  ],
  [
    "Zen",
    "si422",
    0
  ],
  [
    "Olaoluwapolorimi",
    "si422",
    0
  ],
  [
    "Keren",
    "si422",
    0
  ],
  [
    "Chelsey",
    "si422",
    0
  ],
  [
    "Caydee",
    "si422",
    0
  ],
  [
    "Lula",
    "si422",
    0
  ],
  [
    "Jade",
    "si422",
    0
  ],
  [
    "Aleksander",
    "si422",
    0
  ],
  [
    "Bowie",
    "si422",
    0
  ],
  [
    "Alexandria",
    "si422",
    0
  ],
  [
    "Jaia",
    "si422",
    0
  ],
  [
    "Emer",
    "si422",
    0
  ],
  [
    "Logyn",
    "si422",
    0
  ],
  [
    "Musse",
    "si422",
    0
  ],
  [
    "Danys",
    "si422",
    0
  ],
  [
    "Nelly",
    "si422",
    0
  ],
  [
    "Marcelina",
    "si422",
    0
  ],
  [
    "Hamzah",
    "si422",
    0
  ],
  [
    "Muran",
    "si422",
    0
  ],
  [
    "Kasi",
    "si422",
    0
  ],
  [
    "Giuliana",
    "si430",
    1
  ],
  [
    "Diya",
    "si430",
    0
  ],
  [
    "Nodoka",
    "si430",
    0
  ],
  [
    "Nico",
    "si430",
    0
  ],
  [
    "Suzie",
    "si430",
    0
  ],
  [
    "Calum",
    "si430",
    0
  ],
  [
    "Banan",
    "si430",
    0
  ],
  [
    "Holly",
    "si430",
    0
  ],
  [
    "Arisha",
    "si430",
    0
  ],
  [
    "Sakina",
    "si430",
    0
  ],
  [
    "Bryan",
    "si430",
    0
  ],
  [
    "Chris",
    "si430",
    0
  ],
  [
    "Ayse",
    "si430",
    0
  ],
  [
    "Joy",
    "si430",
    0
  ],
  [
    "Seo",
    "si430",
    0
  ],
  [
    "Bradan",
    "si430",
    0
  ],
  [
    "Jeni",
    "si430",
    0
  ],
  [
    "Fatimah",
    "si430",
    0
  ],
  [
    "Jaydon",
    "si430",
    0
  ],
  [
    "Blaire",
    "si430",
    0
  ],
  [
    "Denny",
    "si430",
    0
  ],
  [
    "Cai",
    "si430",
    0
  ],
  [
    "Fergal",
    "si430",
    0
  ],
  [
    "Kelvin",
    "si430",
    0
  ],
  [
    "Herbert",
    "si430",
    0
  ],
  [
    "Abbey",
    "si430",
    0
  ],
  [
    "Findlie",
    "si430",
    0
  ],
  [
    "Billy",
    "si430",
    0
  ],
  [
    "Kya",
    "si430",
    0
  ],
  [
    "Zeeshan",
    "si430",
    0
  ],
  [
    "Tigan",
    "si430",
    0
  ],
  [
    "Chimsom",
    "si430",
    0
  ],
  [
    "Darien",
    "si430",
    0
  ],
  [
    "Kevyn",
    "si430",
    0
  ],
  [
    "Taqwa",
    "si430",
    0
  ],
  [
    "Alba",
    "si430",
    0
  ],
  [
    "Morven",
    "si430",
    0
  ],
  [
    "Lanakai",
    "si430",
    0
  ],
  [
    "Mackalya",
    "si430",
    0
  ],
  [
    "Jensen",
    "si430",
    0
  ],
  [
    "Divya",
    "si430",
    0
  ],
  [
    "Kasandra",
    "si430",
    0
  ],
  [
    "Colum",
    "si430",
    0
  ],
  [
    "Kailas",
    "si430",
    0
  ],
  [
    "Caidy",
    "si430",
    0
  ],
  [
    "Tasniem",
    "si430",
    0
  ],
  [
    "Jayme",
    "si430",
    0
  ],
  [
    "Gallagher",
    "si430",
    0
  ],
  [
    "Malecia",
    "si430",
    0
  ]
]